Exploring the Canadian Election
…
simulated_data

# A tibble: 338 × 2
   Division Party         
      <int> <chr>         
 1        1 Bloc Québécois
 2        2 Other         
 3        3 Bloc Québécois
 4        4 Other         
 5        5 Green         
 6        6 Bloc Québécois
 7        7 Other         
 8        8 Conservative  
 9        9 Other         
10       10 Green         
# ℹ 328 more rows
…
cleaned_elections_data

# A tibble: 338 × 14
   province                 electoral_district electoral_district_n…¹ population
   <chr>                    <chr>                               <dbl>      <dbl>
 1 Newfoundland and Labrad… Avalon                              10001      86494
 2 Newfoundland and Labrad… Bonavista--Burin-…                  10002      74116
 3 Newfoundland and Labrad… Coast of Bays--Ce…                  10003      77680
 4 Newfoundland and Labrad… Labrador                            10004      27197
 5 Newfoundland and Labrad… Long Range Mounta…                  10005      86553
 6 Newfoundland and Labrad… St. John's East/S…                  10006      85697
 7 Newfoundland and Labrad… St. John's South-…                  10007      81979
 8 Prince Edward Island/Îl… Cardigan                            11001      36615
 9 Prince Edward Island/Îl… Charlottetown                       11002      36094
10 Prince Edward Island/Îl… Egmont                              11003      34168
# ℹ 328 more rows
# ℹ abbreviated name: ¹​electoral_district_number_numero_de_circonscription
# ℹ 10 more variables: electors_electeurs <dbl>,
#   polling_stations_bureaux_de_scrutin <dbl>,
#   valid_ballots_bulletins_valides <dbl>,
#   percentage_of_valid_ballots_pourcentage_des_bulletins_valides <dbl>,
#   rejected_ballots_bulletins_rejetes <dbl>, …
…
