Exploring the 2022 Australian Election
…
simulated_data <-
  tibble(
    # Use 1 through to 151 to represent each division
    "Division" = 1:151,
    # Randomly pick an option, with replacement, 151 times
    "Party" = sample(
      x = c("Liberal", "Labor", "National", "Green", "Other"),
      size = 151,
      replace = TRUE
    )
  )

simulated_data

# A tibble: 151 × 2
   Division Party   
      <int> <chr>   
 1        1 Other   
 2        2 National
 3        3 Liberal 
 4        4 Green   
 5        5 Green   
 6        6 Green   
 7        7 Labor   
 8        8 Labor   
 9        9 Other   
10       10 Other   
# ℹ 141 more rows
…
